Spring 2023 Math 300Z - Instructor Teaching Notes for Lesson 29
…
The raw data:

Code

Pop2020 <- readr::read_csv("nc-est2021-agesex-res.csv",
                           show_col_types=FALSE) |>
  filter(SEX > 0, AGE<999) |>
  mutate(sex = ifelse(SEX==1, "female", "male"), 
         age=AGE, pop=ESTIMATESBASE2020) |> 
  select(age, sex, pop)

Pop2020

# A tibble: 202 × 3
     age sex        pop
   <dbl> <chr>    <dbl>
 1     0 female 1907982
 2     1 female 1928926
 3     2 female 1980392
 4     3 female 2028781
 5     4 female 2068682
 6     5 female 2081588
 7     6 female 2072810
 8     7 female 2069511
 9     8 female 2086029
10     9 female 2109096
# … with 192 more rows
…
