Spring 2023 Math 300 Revisions - Learning Checks from Modern Dive
…
::: {.callout-note icon=false} ## LC 4.1 Block 1 Day 8 What are common characteristics of “tidy” data frames? ::

::: {.callout-note icon=false} ## LC 4.2 Block 1 Day 8 What makes “tidy” data frames useful for organizing data? ::

::: {.callout-note icon=false} ## LC 4.3 Block 1 Day 8 Take a look at the airline_safety data frame included in the fivethirtyeight data package. Run the following:

airline_safety

After reading the help file by running ?airline_safety, we see that airline_safety is a data frame containing information on different airline companies’ safety records. This data was originally reported on the data journalism website, FiveThirtyEight.com, in Nate Silver’s article, “Should Travelers Avoid Flying Airlines That Have Had Crashes in the Past?”. Let’s only consider the variables airlines and those relating to fatalities for simplicity:

airline_safety_smaller <- airline_safety %>% 
  select(airline, starts_with("fatalities"))
airline_safety_smaller

# A tibble: 56 × 3
   airline               fatalities_85_99 fatalities_00_14
   <chr>                            <int>            <int>
 1 Aer Lingus                           0                0
 2 Aeroflot                           128               88
 3 Aerolineas Argentinas                0                0
 4 Aeromexico                          64                0
 5 Air Canada                           0                0
 6 Air France                          79              337
 7 Air India                          329              158
 8 Air New Zealand                      0                7
 9 Alaska Airlines                      0               88
10 Alitalia                            50                0
# … with 46 more rows
…
