Spring 2023 Math 300Z - Lesson 19: Worksheet
…
The units for both are `inches-squared” since the variables themselves have units “inches.”

In the moderndive::amazon_books data frame, find the variance of list_price and num_pages. Give both the numerical value and the units.

ANSWER:

moderndive::amazon_books |>
  mutate(vprice = var(list_price), vpages = var(num_pages))

# A tibble: 325 × 15
   title   author list_…¹ amazo…² hard_…³ num_p…⁴ publi…⁵ pub_y…⁶ isbn_10 height
   <chr>   <chr>    <dbl>   <dbl> <fct>     <dbl> <chr>     <dbl> <chr>    <dbl>
 1 1,001 … Cary …    13.0    5.18 P           304 Adams …    2010 160550…    7.8
 2 21: Br… Ben M…    15     10.2  P           273 Free P…    2008 141656…    8.4
 3 100 Be… Smith      1.5    1.5  P            96 Dover …    1995 486285…    8.3
 4 1421: … Gavin…    16.0   10.9  P           672 Harper…    2008 615648…    8.8
 5 1493: … Charl…    30.5   16.8  P           720 Knopf      2011 307265…    8  
 6 1861: … Adam …    29.0   16.4  H           460 Knopf      2011 140004…    8.9
 7 A Chri… Dicke…    20     13.5  H           336 Pengui…    2010 141195…    7.8
 8 A Conf… John …    15      8.44 P           405 Grove …    1987 802130…    8.2
 9 A Danc… Marti…    35     18.8  H            NA Bantam     2011 553801…    9.6
10 A Fare… Ernes…    30     19.8  H           304 Scribn…    1997 684837…    9.6
# … with 315 more rows, 5 more variables: width <dbl>, thick <dbl>,
#   weight_oz <dbl>, vprice <dbl>, vpages <dbl>, and abbreviated variable names
#   ¹​list_price, ²​amazon_price, ³​hard_paper, ⁴​num_pages, ⁵​publisher, ⁶​pub_year
…
