Lessons in Statistical Thinking - 19 Preliminaries
…
Notice something new in the above command: the data=. argument inside lm(). The simple . is doing something important, carrying the output of the earlier stages of the pipeline into the data= argument of lm().
In regression, “grouping” is extended to quantitative variables. For instance,

TenMileRace %>% lm(net ~ age, data = .) %>% coefficients()

(Intercept)         age 
5297.219248    8.189886 

This report indicates a trend of net running time increasing with age by about 8 seconds per year.

The group_by() function can use a quantitative variable, but the result is a different number for each group rather than a trend.

TenMileRace %>% group_by(age) %>% summarize(mn = mean(net)) 

# A tibble: 68 × 2
     age    mn
   <int> <dbl>
 1    10 5635 
 2    12 5978 
 3    13 5405.
 4    14 5620.
 5    15 5166.
 6    16 5522.
 7    17 5716.
 8    18 5259.
 9    19 4573 
10    20 5218.
# … with 58 more rows

With multiple grouping variables, say age and sex, the output of summarize() becomes increasingly complicated. For example:

TenMileRace %>% group_by(sex, age) %>% summarize(mn = mean(net)) 

`summarise()` has grouped output by 'sex'. You can override using the `.groups`
argument.

# A tibble: 127 × 3
# Groups:   sex [2]
   sex     age    mn
   <fct> <int> <dbl>
 1 F        10 5635 
 2 F        13 6831 
 3 F        14 5941.
 4 F        15 4854 
 5 F        16 5678.
 6 F        17 6011.
 7 F        18 5720.
 8 F        19 5285.
 9 F        20 5970.
10 F        21 6057.
# … with 117 more rows
…
